<?xml version="1.0" encoding="utf-8"?>
<!-- Generator: Adobe Illustrator 15.1.0, SVG Export Plug-In . SVG Version: 6.00 Build 0)  -->
<!DOCTYPE svg PUBLIC "-//W3C//DTD SVG 1.1//EN" "http://www.w3.org/Graphics/SVG/1.1/DTD/svg11.dtd">
<svg version="1.1" id="Layer_1" xmlns="http://www.w3.org/2000/svg" xmlns:xlink="http://www.w3.org/1999/xlink" x="0px" y="0px"
	 width="47.777px" height="30.352px" viewBox="76.117 23.789 47.777 30.352" enable-background="new 76.117 23.789 47.777 30.352"
	 xml:space="preserve">
<g id="XMLID_246_">
	<g id="XMLID_30_">
		<path id="XMLID_31_" fill="#DA4B42" d="M91.281,35.965v6.012c0,0,5.824-0.012,8.203-0.012c-1.289,3.891-3.281,6.012-8.203,6.012
			c-4.98,0-8.859-4.031-8.859-9.012s3.891-9.012,8.859-9.012c2.637,0,4.336,0.926,5.895,2.215c1.254-1.254,1.148-1.43,4.324-4.43
			c-2.695-2.449-6.281-3.949-10.207-3.949c-8.379,0-15.176,6.797-15.176,15.176s6.797,15.176,15.176,15.176
			c12.527,0,15.586-10.91,14.566-18.176C102.895,35.965,91.281,35.965,91.281,35.965z M118.633,36.258v-5.262h-3.75v5.262h-5.402
			v3.75h5.402v5.402h3.75v-5.402h5.262v-3.75H118.633z"/>
	</g>
</g>
</svg>
